^E:\PROG_PROJEKTY\PROGMESH\BUNNYGUT.CPP|E:\PROG_PROJEKTY\PROGMESH\FONT.CPP|E:\PROG_PROJEKTY\PROGMESH\PROGMESH.CPP|E:\PROG_PROJEKTY\PROGMESH\RABDATA.CPP|E:\PROG_PROJEKTY\PROGMESH\VECTOR.CPP|E:\PROG_PROJEKTY\PROGMESH\WINMAIN.CPP
E:\PROG_PROJEKTY\PROGMESH\DEBUG\VC140.PDB
E:\PROG_PROJEKTY\PROGMESH\DEBUG\VC140.IDB
E:\PROG_PROJEKTY\PROGMESH\DEBUG\WINMAIN.SBR
E:\PROG_PROJEKTY\PROGMESH\DEBUG\VECTOR.SBR
E:\PROG_PROJEKTY\PROGMESH\DEBUG\RABDATA.SBR
E:\PROG_PROJEKTY\PROGMESH\DEBUG\PROGMESH.SBR
E:\PROG_PROJEKTY\PROGMESH\DEBUG\FONT.SBR
E:\PROG_PROJEKTY\PROGMESH\DEBUG\BUNNYGUT.SBR
E:\PROG_PROJEKTY\PROGMESH\DEBUG\BUNNYGUT.OBJ
E:\PROG_PROJEKTY\PROGMESH\DEBUG\FONT.OBJ
E:\PROG_PROJEKTY\PROGMESH\DEBUG\PROGMESH.OBJ
E:\PROG_PROJEKTY\PROGMESH\DEBUG\RABDATA.OBJ
E:\PROG_PROJEKTY\PROGMESH\DEBUG\VECTOR.OBJ
^E:\PROG_PROJEKTY\PROGMESH\BUNNYGUT.CPP
E:\PROG_PROJEKTY\PROGMESH\DEBUG\VC140.PDB
^E:\PROG_PROJEKTY\PROGMESH\FONT.CPP
E:\PROG_PROJEKTY\PROGMESH\DEBUG\VC140.PDB
^E:\PROG_PROJEKTY\PROGMESH\PROGMESH.CPP
E:\PROG_PROJEKTY\PROGMESH\DEBUG\VC140.PDB
E:\PROG_PROJEKTY\PROGMESH\DEBUG\VC140.IDB
E:\PROG_PROJEKTY\PROGMESH\DEBUG\PROGMESH.SBR
E:\PROG_PROJEKTY\PROGMESH\DEBUG\PROGMESH.OBJ
^E:\PROG_PROJEKTY\PROGMESH\RABDATA.CPP
E:\PROG_PROJEKTY\PROGMESH\DEBUG\VC140.PDB
^E:\PROG_PROJEKTY\PROGMESH\VECTOR.CPP
E:\PROG_PROJEKTY\PROGMESH\DEBUG\VC140.PDB
^E:\PROG_PROJEKTY\PROGMESH\WINMAIN.CPP
E:\PROG_PROJEKTY\PROGMESH\DEBUG\VC140.PDB
E:\PROG_PROJEKTY\PROGMESH\DEBUG\VC140.IDB
E:\PROG_PROJEKTY\PROGMESH\DEBUG\WINMAIN.SBR
E:\PROG_PROJEKTY\PROGMESH\DEBUG\WINMAIN.OBJ
^E:\PROG_PROJEKTY\PROGMESH\PROGMESH.CPP|E:\PROG_PROJEKTY\PROGMESH\WINMAIN.CPP
E:\PROG_PROJEKTY\PROGMESH\DEBUG\VC140.PDB
E:\PROG_PROJEKTY\PROGMESH\DEBUG\VC140.IDB
E:\PROG_PROJEKTY\PROGMESH\DEBUG\PROGMESH.SBR
E:\PROG_PROJEKTY\PROGMESH\DEBUG\PROGMESH.OBJ
