^E:\PROG_PROJEKTY\PROGMESH\DEBUG\BUNNYGUT.OBJ|E:\PROG_PROJEKTY\PROGMESH\DEBUG\FONT.OBJ|E:\PROG_PROJEKTY\PROGMESH\DEBUG\PROGMESH.OBJ|E:\PROG_PROJEKTY\PROGMESH\DEBUG\RABDATA.OBJ|E:\PROG_PROJEKTY\PROGMESH\DEBUG\VECTOR.OBJ|E:\PROG_PROJEKTY\PROGMESH\DEBUG\WINMAIN.OBJ
C:\WINDOWS\WINSXS\X86_MICROSOFT.VC80.CRT_1FC8B3B9A1E18E3B_8.0.50727.6229_NONE_D089F796442DE10E\MSVCR80.DLL
C:\WINDOWS\GLOBALIZATION\SORTING\SORTDEFAULT.NLS
C:\PROGRAM FILES (X86)\WINDOWS KITS\8.1\LIB\WINV6.3\UM\X86\ODBC32.LIB
C:\PROGRAM FILES (X86)\WINDOWS KITS\8.1\LIB\WINV6.3\UM\X86\ODBCCP32.LIB
C:\PROGRAM FILES (X86)\WINDOWS KITS\8.1\LIB\WINV6.3\UM\X86\OPENGL32.LIB
C:\PROGRAM FILES (X86)\WINDOWS KITS\8.1\LIB\WINV6.3\UM\X86\GLU32.LIB
C:\PROGRAM FILES (X86)\WINDOWS KITS\8.1\LIB\WINV6.3\UM\X86\WINMM.LIB
C:\PROGRAM FILES (X86)\WINDOWS KITS\8.1\LIB\WINV6.3\UM\X86\KERNEL32.LIB
C:\PROGRAM FILES (X86)\WINDOWS KITS\8.1\LIB\WINV6.3\UM\X86\USER32.LIB
C:\PROGRAM FILES (X86)\WINDOWS KITS\8.1\LIB\WINV6.3\UM\X86\GDI32.LIB
C:\PROGRAM FILES (X86)\WINDOWS KITS\8.1\LIB\WINV6.3\UM\X86\WINSPOOL.LIB
C:\PROGRAM FILES (X86)\WINDOWS KITS\8.1\LIB\WINV6.3\UM\X86\COMDLG32.LIB
C:\PROGRAM FILES (X86)\WINDOWS KITS\8.1\LIB\WINV6.3\UM\X86\ADVAPI32.LIB
C:\PROGRAM FILES (X86)\WINDOWS KITS\8.1\LIB\WINV6.3\UM\X86\SHELL32.LIB
C:\PROGRAM FILES (X86)\WINDOWS KITS\8.1\LIB\WINV6.3\UM\X86\OLE32.LIB
C:\PROGRAM FILES (X86)\WINDOWS KITS\8.1\LIB\WINV6.3\UM\X86\OLEAUT32.LIB
C:\PROGRAM FILES (X86)\WINDOWS KITS\8.1\LIB\WINV6.3\UM\X86\UUID.LIB
E:\PROG_PROJEKTY\PROGMESH\DEBUG\BUNNYGUT.OBJ
E:\PROG_PROJEKTY\PROGMESH\DEBUG\FONT.OBJ
E:\PROG_PROJEKTY\PROGMESH\DEBUG\PROGMESH.OBJ
E:\PROG_PROJEKTY\PROGMESH\DEBUG\RABDATA.OBJ
E:\PROG_PROJEKTY\PROGMESH\DEBUG\VECTOR.OBJ
E:\PROG_PROJEKTY\PROGMESH\DEBUG\WINMAIN.OBJ
C:\WINDOWS\SYSTEM32\TZRES.DLL
C:\PROGRAM FILES (X86)\MICROSOFT VISUAL STUDIO 14.0\VC\LIB\LIBCMTD.LIB
C:\PROGRAM FILES (X86)\MICROSOFT VISUAL STUDIO 14.0\VC\LIB\OLDNAMES.LIB
C:\PROGRAM FILES (X86)\MICROSOFT VISUAL STUDIO 14.0\VC\LIB\LIBCPMTD.LIB
C:\PROGRAM FILES (X86)\MICROSOFT VISUAL STUDIO 14.0\VC\LIB\LIBVCRUNTIMED.LIB
C:\PROGRAM FILES (X86)\WINDOWS KITS\10\LIB\10.0.10150.0\UCRT\X86\LIBUCRTD.LIB
